url,email,name
www.redhat.com.br,,"Training | Red Hat Brasil"
www.superherostuff.com,,"Superhero t-shirts, hoodies, hats, and more | SuperHeroStuff"
www.imseolab.com,curvedline098@outlook.com,"IMSEOLab - Black Hat Forum | BlackHat Premium SEO Tools"
www.daily-date.de,,"Casual Dating mit Daily-Date – Eine Affäre hat noch nie geschadet"
www.seosiren.com,,"SEOSiren - A Daily Blog By SEO Expert From India - Satish Kumar is a Professional SEO Consultant fro"
www.blackhatgroup.com,abuse@enom.com,"Black Hat Seo Forum - Blackhatgroup.com"
www.blackhatim.com,xrmonster@gmail.com,"Black Hat SEO Forum - BlackhatIM.com"
www.thesocialmediahat.com,mike@thesocialmediahat.com,"The Social Media Hat | When One More Hat Is One Too Many"
www.openshift.com,openshift-partners@redhat.com,"OpenShift by Red Hat"
www.lids.com,,"LIDS Team Apparel & Hats: MLB World Series Gear, NFL Jerseys, NCAA T-Shirts & EXCLUSIVE Gear | Lids."
www.foro20.com,abuse@name.com,"Foro 2.0 - Black Hat SEO, White Hat SEO, Bloggers, Diseño gráfico y negocios."
www.blackhatteam.com,abuse@enom.com,"Black Hat Seo & Affiliate Marketing Forum"
www.redhat.com,,"Red Hat | The world's open source leader"
www.foroblackhat.com,hola@foroblackhat.com,"Foro Black Hat SEO"
www.bootbarn.com,custserv@bootbarn.com,"BootBarn - Cowboy Boots, Western Wear, Work Boots, Work Wear, Hats, Western Accessories and Home Dé"
www.blackhatace.com,,"Internet Marketing Product Downloads - Black Hat Ace"
www.arturorios.com,abuse@melbourneit.com.au,"ARTURO RIOS 2014 COLLECTION, Arturo Rios lady gaga, Lady gaga hats, Arturo Rios Couture Hat Collecti"
www.blackhatspot.com,abuse@enom.com,"Black Hat SEO Forum - Black Hat Search Engine Optimization - Internet Marketing Forums"
www.jacobking.com,,"The {White|Grey|Black} Hat SEO Blog - JacobKing.com"
www.blackhat.com,blackhatbrazil@ubm.com,"Black Hat | Home"
www.hat-trick.ir,info@hat-trick.ir,"هت‌ تریک | ویدئو رسانه فوتبال اروپا | ویدئو رسانه فوتبا"
www.seoxplosivo.com,,"Seoxplosivo - | Revista de SEO, Marketing y Black Hat"
www.podcast.de,,"Podcast-Verzeichnis mit MP3s + Videos - podcast.de hat Videopodcasts, Downloads, Hörbücher + Hörs"
www.bestblackhatforum.eu,itplane@gmail.com,"Best Black Hat Forum"
www.resistol.net,customerservice@rodeowesternwear.net,"""Resistol"" ""Resistol Cowboy Hat"" ""Resistol Cowboy Hats"" ""Resistol Cowboy Hats"" ""Resistol"" ""Resistol "
www.17hats.com,support@17hats.com,"17hats : The Simple Business Management App For Businesses of One : Features"
www.themoralconcept.net,joshbachynski@gmail.com,"Confessions of a Black Hat - Is Matt Cutts a Fraud? - Josh Bachynski"
www.shewearsmanyhats.com,,"Recipes, Family Fun & Lifestyle Tips | She Wears Many Hats"
www.sheplers.com,,"Cowboy Boots, Cowgirl Boots, Cowboy Hats, Western Wear, and Jeans -- Sheplers.com"
www.wendyshat.com,wendy@wendyshat.com,"Wendys Hat - Just a girl in a hat!"
www.craniumfitteds.com,,"New Era Caps, Snapbacks, Bucket Hats, T-Shirts, Streetwear USA Cranium Fitteds"
www.browsergames.org,,"Browsergames.org hat die Top 100 Games kostenlos"
www.imsoldiers.com,abuse@enom.com,"Black Hat SEO Forum | IMSoldiers.com"
www.blackhattoolz.com,admin@blackhattoolz.com,"BlackHat Toolz - Black Hat Marketing Scripts / Software"
www.hatsandcaps.co.uk,cs@hatsandcaps.co.uk,"Hats & Caps - Mens Hats, Womens Hats, Beanies, Flat Caps and Winter Hats - Village Hats"
www.seoblackout.com,,"Blog SEO BlackOut: Techniques référencement Google & Black Hat SEO"
www.backlinksforums.com,,"Backlinks Forums - Black Hat Seo Forum"
www.werhatangerufen.com,,"Wer hat angerufen?"
www.goorin.com,pr@goorin.com,"Men's and Women's Hats | Fedoras | Cloches | Goorin Bros. Hat Shop. Established 1895."
www.lamphats.com,designtelesis@lamphats.com,"Lamp Hats Home Page"
www.womensuits.com,info@womensuits.com,"Womens Church Suits, Church Hats, & Church Dresses."
www.seoparty.net,,"Blog o pozycjonowaniu czyli Black Hat SEO vs White Hat SEO - SEO Party"
www.villagehatshop.com,address@email.com,"Hats and Caps - Village Hat Shop - Best Selection Online"
www.linuxcenter.ru,aba@linuxcenter.ru,"Linuxcenter.Ru – эксперт по Linux и свободному программному обе"
www.plaidhatgames.com,,"Home | Plaid Hat Games"
www.hats.com,affiliates@hats.com,"Largest Selection of Hats and Caps Online - hats.com"
www.splitreason.com,kenny@splitreason.com,"SPLITREASON.COM - Video game themed geek t-shirts, gamer t-shirts, hats, hoodies, mugs, stickers and"
www.allthingsjeep.com,info@allthingsjeep.com,"1000s of Jeep Gifts, Jeep Accessories, Jeep Tees, Hats, Decals, Jeep Seat Covers, Floor Mats + more"
www.golfballs.com,service@golfballs.com,"Personalized Golf Balls, Custom Logo Golf Balls, Golf Hats, Golf Shoes, Golf Shirts, Golf Clubs and "
www.hattiesburgamerican.com,customerservice@hattiesburgamerican.com,"Hattiesburg American|Hattiesburg, MS"
www.augustcaps.com,augustcaps@gmail.com,"Welcome to August Caps Wholesale (Crown Hat, Inc.) - Discount Wholesale Hats - Direct Import Snapbac"
www.countryclubprep.com,customerservice@countryclubprep.com,"Shop Preppy Clothing & Accessories - Preppy Polos Shirts, Tee Shirts, Hats, Visors, Shorts, Pants, D"
www.wintershop.pl,,"Wintershop.pl - czapki zimowe: sprzedaż hurtownia czapek kominów i dodatków. Winter Hats. Okulary"
www.bluehatseo.com,,"Blue Hat SEO – Advanced SEO Tactics"
www.referencement-naturel-white-hat.fr,,"Référencement naturel Google - SEO white-hat"
www.csshat.com,team@madebysource.com,"CSS Hat – Turn Photoshop Layer Styles to CSS3. Instantly."
www.e4hats.com,ettc@e4hats.com,"e4Hats.com: Big Hat, Beanie Caps, Costume Hats, Winter Cap"
www.galaxyarmynavy.com,,"Galaxy Army Navy Store: camouflage clothing, vintage fatigues, military apparel, outdoor products, m"
www.buckeyecorner.com,,"Ohio State Buckeyes Hats and Apparel"
www.online-games.com,domain-abuse@psi-usa.info,"Online-Games.com hat die besten Browsergames, MMORPG und Download-Games"
www.headcovers.com,,"Hats, Turbans & Wigs for Hair Loss & Cancer Chemotherapy Patients"
www.thehairbowcompany.com,,"Hair Bows - Baby Hats, Baby Headbands, Crochet Headbands | The Hair Bow Company"
www.partouzedeliens.info,,"Blog SEOlitiquement incorrect — Référencement Underground : Pink hat SEO"
www.theblackmelvyn.com,,"Référencement SEO Black Hat & White Hat et developpement"
www.panamahatmall.com,gerencia@panamahatmall.com,"Panama Hat | Panama Hats"
www.soviet-power.com,soviet-power@mail.ru,"Soviet Power - Russian Uniforms, Hats, Military Surplus, Army Badges"
www.thinkinghat.in,bangalore@thinkinghat.in,"Welcome to Thinking Hat"
www.discodog.fr,,"Référencement google | Affiliation | Black hat SEO & webmarketing"
www.littlegoa.com,info@littlegoa.com,"LITTLEGOA Home page Buy Online Bongs , Hukka , Body Piercing Jwellery , Herbal Grinder , Chillum , E"
www.wholesalehats.com,wholesalehats@yahoo.com,"Wholesale Hats - Wholesale Caps, Beanies, Army Hats & 1000s More!"
www.stetson.com,customerservice@shopstetson.net,"Western Wear, Apparel, Hats, and Accessories | Stetson"
www.freshbrewedtees.com,,"Fresh Brewed Tees - Sports Shirts, Hoodies, Hats and More"
www.hatland.com,,"HATLAND Authentic New Era Fitted Hats Blank Snapbacks and Beanies"
www.universal-textiles.com,orders@universal-textiles.com,"Thermal Underwear, Men's & Women's Thinsulate Gloves, Hats, Socks, Baby"
www.kartrelic.com,admin@kartrelic.com,"Online Shopping Portal For Youth - Buy Snapback caps and hats, Hip Hop T Shirts, Creative Posters at"
www.milbstore.com,abuse@enom.com,"Minor League Baseball Merchandise, Hats, Caps, Jerseys and Apparel @ the Official Store of the MiLB"
www.rhd.ru,info@inventa.ru,"redhat.ru - программные продукты, курсы, экзамены, сертифик"
www.modernvintageboutique.com,shopmvbsupport@hotmail.com,"MVB is the most Unique and Fastest Online Women's Clothing & Accessories Boutique | Tops, Dresses, M"
www.optilocal.org,inquire@optilocal.org,"Local SEO Services by OptiLocal | White Hat Search Engine Optimization (SEO) Company"
www.rebelinkshop.com,support@rebelinkshop.com,"Tattoo-Inspired T-Shirts, Hats, Art & More | Rebel Ink Shop"
www.goldenhatbingo.com,support@goldenhatbingo.com,"Online Bingo| Up to £250 Free | Golden Hat Bingo"
www.ohsnapbacks.com,,"The Best Snapbacks, Strapbacks & 5-Panel Hats - OhSnapbacks.comOh Snapbacks, Strapbacks and 5 Panel "
www.luca-mercatanti.com,blaska9@hotmail.it,"Luca Mercatanti | Smanettone tecnologico, Geek, Black Hat"
www.blackhattorrents.com,,"Black Hat Torrents - BlackHatTorrents.com"
www.black-hat-downloads.com,,"Blackhat Download Marketing"
www.flamingpear.com,acquaintance@paidtwice.edu,"Creative Photoshop plug-ins for your digital photos"
www.redhat-club.org,,"Red Hat Клуб"
www.setupcentosserver.com,,"Setup centOS Server | Learn Linux Online Free | Red Hat Certification | LPI Exam Preparation & Certi"
www.datentransfer24.de,musterschreiben@datentransfer24.de,"neue Urteile, Hartz 4, neue Gesetze, Änderungen 2015, Ratgeber"
www.hatshop.ie,info@hatshop.ie,"Hat Shop, Hat shop ireland, HatShop Galway, Hats Dublin, Hats Ireland, Hat Shop, Ladies Hats, lady's"
www.uniqueoneofkind.com,,"unique one of kind - Poetry Ebooks & Homemade Baby Hats"
www.laymyhat.com,contact@laymyhat.com,"Lay My Hat - advice for rental owners, from rental owners"
www.band-tees.com,sales@band-tees.com,"Music t-shirts, band t-shirts, rock t-shirts, concert t-shirts, Hoodies, Rock & Roll Merchandise,Cap"
www.evilhat.com,,"Evil Hat Productions | Turning Passion Into Great Games!"
www.networknuts-web.biz,info@networknuts.net,"Best Red Hat Linux Training Certification Partner-North India"
www.exitcertified.com,contact@exitcertified.com,"Red Hat Training, Sap Training, Salesforce Training & Cloudera"
www.blackhatprime.com,,"Internet Marketing Product Downloads - Black Hat Prime"
www.ecapcity.com,abuse@web.com,"Custom New Era Hats - 59Fifty Fitted Hats - New Era Fitted Caps - Snapback Hats - New Balance - Snap"
www.hat-trick.fr,,"Hat-trick"
www.morefashionable.com,admin@morefashionable.com,"More Fashionable | Fashion Styles, Hairstyles, Makeup, Fashion Trends, Accessories, Shoes, Sandals, "
www.panamajack.com,info@panamajack.com,"Beachwear, Sun Care Protection, Safari Hats, Sunglasses, and more | Panama Jack Store"
www.whitehat.com.au,webmaster@whitehat.com.au,"White Hat"
www.inkpixi.com,compliance@domain-inc.net,"Personalized T-Shirts and Hats - Customized Shirts at InkPixi"
www.sundayafternoons.com,,"Sunday Afternoons - Sun Protective Hats and Clothing"
www.shop49ers.com,,"San Francisco 49ers Store - 49ers Gear, Jerseys, Hats, Merchandise -Official 49ers Shop"
www.mtvtn.com,info@mtvtn.com,"Streetwear Clothing Hats & Sneakers – Motivation | MTVTN.com"
www.blackhatcollections.com,admin@blackhatcollections.com,"Black Hat SEO Forum"
www.blackhatvip.com,abuse@enom.com,"Black Hat VIP"
www.makingniceinthemidwest.com,,"Making Nice in the Midwest - I'm just a thrifty gal who wears hats, makes crafts, and lives a creati"
www.whitehatcrew.com,,"White Hat Crew: Ethical Internet Marketing & SEO"
www.dark-seo.com,abuse@ovh.net,"DARK SEO : Black Hat : blog farming, content spinning & seo tools !"
www.blackhatseo.com,seobook@gmail.com,"Black Hat SEO"
www.hardhathosting.com,abuse@enom.com,"Hard Hat Hosting – Managed VPS Hosting | Managed Dedicated Servers"
www.krochetkids.org,,"Krochet Kids intl. | This is Empowerment | Knit Crochet Hats Men Women Baby | Social Capitalism"
